p_id,p_name,p_description,p_price,category_id,stock,vendor,tags,size,color,discount,weight
P001,TV1,This is TV1,10,1,15,1,TV,small,black,10,5
P002,TV2,This is TV2,20,1,10,1,TV,medium,white,10,10
P003,TV3,This is TV3,30,1,12,1,TV,large,brown,20,15
